{
  "data": [
    {
      "id": 13,
      "attributes": {
        "slug": "street-fighter-6",
        "title": "Street Fighter 6",
        "subtitle": "Beginners of Street Fighter 6 should turn their eyes to these characters.",
        "publishedAt": "2023-08-06T14:06:33.055Z",
        "image": {
          "data": [
            {
              "id": 13,
              "attributes": {
                "url": "/uploads/sf6_poster_0dadae7748.avif"
              }
            }
          ]
        }
      }
    },
    {
      "id": 12,
      "attributes": {
        "slug": "planet-of-lana",
        "title": "Planet of Lana",
        "subtitle": "Wishfully Studio's newest game, Planet of Lana, is turning heads in the indie gaming community due to its stunning hand-painted visuals.",
        "publishedAt": "2023-08-06T14:04:11.428Z",
        "image": {
          "data": [
            {
              "id": 12,
              "attributes": {
                "url": "/uploads/planet_of_lana_1_4a87d1d6e3.avif"
              }
            }
          ]
        }
      }
    },
    {
      "id": 11,
      "attributes": {
        "slug": "little-devil-inside",
        "title": "Little Devil Inside",
        "subtitle": "Indie game Little Devil Inside from Neostream Interactive apparently will release in winter of 2022, a bit later than some fans were likely hoping.",
        "publishedAt": "2023-08-06T14:02:32.588Z",
        "image": {
          "data": [
            {
              "id": 11,
              "attributes": {
                "url": "/uploads/little_devil_inside_key_art_1_0ea108fcb5.avif"
              }
            }
          ]
        }
      }
    },
    {
      "id": 10,
      "attributes": {
        "slug": "marvels-spider-man-2",
        "title": "Marvel's Spider-Man 2",
        "subtitle": "Marvel’s Spider-Man 2 has taken a clever approach to its limited-edition console, and hopefully more PlayStation exclusives will follow suit.",
        "publishedAt": "2023-08-06T14:00:50.920Z",
        "image": {
          "data": [
            {
              "id": 10,
              "attributes": {
                "url": "/uploads/marvels_spider_man_2_key_art_d3dba7ed46.avif"
              }
            }
          ]
        }
      }
    },
    {
      "id": 9,
      "attributes": {
        "slug": "final-fantasy-xvi",
        "title": "Final Fantasy XVI",
        "subtitle": "Most recently, Square Enix revealed Final Fantasy XVI during the PS5 Showcase. Here is what we learned and some questions we have.",
        "publishedAt": "2023-08-06T13:59:26.990Z",
        "image": {
          "data": [
            {
              "id": 9,
              "attributes": {
                "url": "/uploads/final_fantasy_16_announcement_ps5_17ebc56b7b.avif"
              }
            }
          ]
        }
      }
    },
    {
      "id": 8,
      "attributes": {
        "slug": "prince-of-persia-the-sands-of-time-remake",
        "title": "Prince of Persia: The Sands of Time Remake",
        "subtitle": "Ubisoft finally provides an update on the Prince of Persia: Sands of Time Remake, but it is not something players were hoping for.",
        "publishedAt": "2023-08-06T13:57:57.532Z",
        "image": {
          "data": [
            {
              "id": 8,
              "attributes": {
                "url": "/uploads/prince_of_persia_sands_of_time_remake_ubisoft_28ae5564d5.avif"
              }
            }
          ]
        }
      }
    }
  ],
  "meta": {
    "pagination": {
      "page": 1,
      "pageSize": 6,
      "pageCount": 3,
      "total": 13
    }
  }
}